<?xml version='1.0' encoding='UTF-8' ?>
<svg xmlns='http://www.w3.org/2000/svg' xmlns:xlink='http://www.w3.org/1999/xlink' class='svglite' data-engine-version='2.0' width='720.00pt' height='576.00pt' viewBox='0 0 720.00 576.00'>
<defs>
  <style type='text/css'><![CDATA[
    .svglite line, .svglite polyline, .svglite polygon, .svglite path, .svglite rect, .svglite circle {
      fill: none;
      stroke: #000000;
      stroke-linecap: round;
      stroke-linejoin: round;
      stroke-miterlimit: 10.00;
    }
  ]]></style>
</defs>
<rect width='100%' height='100%' style='stroke: none; fill: #FFFFFF;'/>
<defs>
  <clipPath id='cpMC4wMHw3MjAuMDB8MC4wMHw1NzYuMDA='>
    <rect x='0.00' y='0.00' width='720.00' height='576.00' />
  </clipPath>
</defs>
<g clip-path='url(#cpMC4wMHw3MjAuMDB8MC4wMHw1NzYuMDA=)'>
</g>
<defs>
  <clipPath id='cpMjczLjE2fDQ0Ni44NHwwLjAwfDU3Ni4wMA=='>
    <rect x='273.16' y='0.00' width='173.69' height='576.00' />
  </clipPath>
</defs>
<g clip-path='url(#cpMjczLjE2fDQ0Ni44NHwwLjAwfDU3Ni4wMA==)'>
</g>
<g clip-path='url(#cpMC4wMHw3MjAuMDB8MC4wMHw1NzYuMDA=)'>
</g>
<defs>
  <clipPath id='cpNDE3LjkyfDQ0MS4zNnw3MS42MHw0ODUuODA='>
    <rect x='417.92' y='71.60' width='23.45' height='414.20' />
  </clipPath>
</defs>
<g clip-path='url(#cpNDE3LjkyfDQ0MS4zNnw3MS42MHw0ODUuODA=)'>
<polyline points='417.92,481.13 441.36,481.13 ' style='stroke-width: 1.07; stroke: #EBEBEB; stroke-linecap: butt;' />
<polyline points='417.92,473.35 441.36,473.35 ' style='stroke-width: 1.07; stroke: #EBEBEB; stroke-linecap: butt;' />
<polyline points='417.92,465.56 441.36,465.56 ' style='stroke-width: 1.07; stroke: #EBEBEB; stroke-linecap: butt;' />
<polyline points='417.92,457.78 441.36,457.78 ' style='stroke-width: 1.07; stroke: #EBEBEB; stroke-linecap: butt;' />
<polyline points='417.92,449.99 441.36,449.99 ' style='stroke-width: 1.07; stroke: #EBEBEB; stroke-linecap: butt;' />
<polyline points='417.92,442.20 441.36,442.20 ' style='stroke-width: 1.07; stroke: #EBEBEB; stroke-linecap: butt;' />
<polyline points='417.92,434.42 441.36,434.42 ' style='stroke-width: 1.07; stroke: #EBEBEB; stroke-linecap: butt;' />
<polyline points='417.92,426.63 441.36,426.63 ' style='stroke-width: 1.07; stroke: #EBEBEB; stroke-linecap: butt;' />
<polyline points='417.92,418.85 441.36,418.85 ' style='stroke-width: 1.07; stroke: #EBEBEB; stroke-linecap: butt;' />
<polyline points='417.92,411.06 441.36,411.06 ' style='stroke-width: 1.07; stroke: #EBEBEB; stroke-linecap: butt;' />
<polyline points='417.92,403.28 441.36,403.28 ' style='stroke-width: 1.07; stroke: #EBEBEB; stroke-linecap: butt;' />
<polyline points='417.92,395.49 441.36,395.49 ' style='stroke-width: 1.07; stroke: #EBEBEB; stroke-linecap: butt;' />
<polyline points='417.92,387.70 441.36,387.70 ' style='stroke-width: 1.07; stroke: #EBEBEB; stroke-linecap: butt;' />
<polyline points='417.92,379.92 441.36,379.92 ' style='stroke-width: 1.07; stroke: #EBEBEB; stroke-linecap: butt;' />
<polyline points='417.92,372.13 441.36,372.13 ' style='stroke-width: 1.07; stroke: #EBEBEB; stroke-linecap: butt;' />
<polyline points='417.92,364.35 441.36,364.35 ' style='stroke-width: 1.07; stroke: #EBEBEB; stroke-linecap: butt;' />
<polyline points='417.92,356.56 441.36,356.56 ' style='stroke-width: 1.07; stroke: #EBEBEB; stroke-linecap: butt;' />
<polyline points='417.92,348.78 441.36,348.78 ' style='stroke-width: 1.07; stroke: #EBEBEB; stroke-linecap: butt;' />
<polyline points='417.92,340.99 441.36,340.99 ' style='stroke-width: 1.07; stroke: #EBEBEB; stroke-linecap: butt;' />
<polyline points='417.92,333.20 441.36,333.20 ' style='stroke-width: 1.07; stroke: #EBEBEB; stroke-linecap: butt;' />
<polyline points='417.92,325.42 441.36,325.42 ' style='stroke-width: 1.07; stroke: #EBEBEB; stroke-linecap: butt;' />
<polyline points='417.92,317.63 441.36,317.63 ' style='stroke-width: 1.07; stroke: #EBEBEB; stroke-linecap: butt;' />
<polyline points='417.92,309.85 441.36,309.85 ' style='stroke-width: 1.07; stroke: #EBEBEB; stroke-linecap: butt;' />
<polyline points='417.92,302.06 441.36,302.06 ' style='stroke-width: 1.07; stroke: #EBEBEB; stroke-linecap: butt;' />
<polyline points='417.92,294.27 441.36,294.27 ' style='stroke-width: 1.07; stroke: #EBEBEB; stroke-linecap: butt;' />
<polyline points='417.92,286.49 441.36,286.49 ' style='stroke-width: 1.07; stroke: #EBEBEB; stroke-linecap: butt;' />
<polyline points='417.92,278.70 441.36,278.70 ' style='stroke-width: 1.07; stroke: #EBEBEB; stroke-linecap: butt;' />
<polyline points='417.92,270.92 441.36,270.92 ' style='stroke-width: 1.07; stroke: #EBEBEB; stroke-linecap: butt;' />
<polyline points='417.92,263.13 441.36,263.13 ' style='stroke-width: 1.07; stroke: #EBEBEB; stroke-linecap: butt;' />
<polyline points='417.92,255.35 441.36,255.35 ' style='stroke-width: 1.07; stroke: #EBEBEB; stroke-linecap: butt;' />
<polyline points='417.92,247.56 441.36,247.56 ' style='stroke-width: 1.07; stroke: #EBEBEB; stroke-linecap: butt;' />
<polyline points='417.92,239.77 441.36,239.77 ' style='stroke-width: 1.07; stroke: #EBEBEB; stroke-linecap: butt;' />
<polyline points='417.92,231.99 441.36,231.99 ' style='stroke-width: 1.07; stroke: #EBEBEB; stroke-linecap: butt;' />
<polyline points='417.92,224.20 441.36,224.20 ' style='stroke-width: 1.07; stroke: #EBEBEB; stroke-linecap: butt;' />
<polyline points='417.92,216.42 441.36,216.42 ' style='stroke-width: 1.07; stroke: #EBEBEB; stroke-linecap: butt;' />
<polyline points='417.92,208.63 441.36,208.63 ' style='stroke-width: 1.07; stroke: #EBEBEB; stroke-linecap: butt;' />
<polyline points='417.92,200.85 441.36,200.85 ' style='stroke-width: 1.07; stroke: #EBEBEB; stroke-linecap: butt;' />
<polyline points='417.92,193.06 441.36,193.06 ' style='stroke-width: 1.07; stroke: #EBEBEB; stroke-linecap: butt;' />
<polyline points='417.92,185.27 441.36,185.27 ' style='stroke-width: 1.07; stroke: #EBEBEB; stroke-linecap: butt;' />
<polyline points='417.92,177.49 441.36,177.49 ' style='stroke-width: 1.07; stroke: #EBEBEB; stroke-linecap: butt;' />
<polyline points='417.92,169.70 441.36,169.70 ' style='stroke-width: 1.07; stroke: #EBEBEB; stroke-linecap: butt;' />
<polyline points='417.92,161.92 441.36,161.92 ' style='stroke-width: 1.07; stroke: #EBEBEB; stroke-linecap: butt;' />
<polyline points='417.92,154.13 441.36,154.13 ' style='stroke-width: 1.07; stroke: #EBEBEB; stroke-linecap: butt;' />
<polyline points='417.92,146.35 441.36,146.35 ' style='stroke-width: 1.07; stroke: #EBEBEB; stroke-linecap: butt;' />
<polyline points='417.92,138.56 441.36,138.56 ' style='stroke-width: 1.07; stroke: #EBEBEB; stroke-linecap: butt;' />
<polyline points='417.92,130.77 441.36,130.77 ' style='stroke-width: 1.07; stroke: #EBEBEB; stroke-linecap: butt;' />
<polyline points='417.92,122.99 441.36,122.99 ' style='stroke-width: 1.07; stroke: #EBEBEB; stroke-linecap: butt;' />
<polyline points='417.92,115.20 441.36,115.20 ' style='stroke-width: 1.07; stroke: #EBEBEB; stroke-linecap: butt;' />
<polyline points='417.92,107.42 441.36,107.42 ' style='stroke-width: 1.07; stroke: #EBEBEB; stroke-linecap: butt;' />
<polyline points='417.92,99.63 441.36,99.63 ' style='stroke-width: 1.07; stroke: #EBEBEB; stroke-linecap: butt;' />
<polyline points='417.92,91.85 441.36,91.85 ' style='stroke-width: 1.07; stroke: #EBEBEB; stroke-linecap: butt;' />
<polyline points='417.92,84.06 441.36,84.06 ' style='stroke-width: 1.07; stroke: #EBEBEB; stroke-linecap: butt;' />
<polyline points='417.92,76.27 441.36,76.27 ' style='stroke-width: 1.07; stroke: #EBEBEB; stroke-linecap: butt;' />
<polyline points='429.64,485.80 429.64,71.60 ' style='stroke-width: 1.07; stroke: #EBEBEB; stroke-linecap: butt;' />
<rect x='419.87' y='477.24' width='19.54' height='7.79' style='stroke-width: 1.71; stroke: #FFFFFF; stroke-linecap: square; stroke-linejoin: miter; fill: #2166AC;' />
<rect x='419.87' y='469.45' width='19.54' height='7.79' style='stroke-width: 1.71; stroke: #FFFFFF; stroke-linecap: square; stroke-linejoin: miter; fill: #2166AC;' />
<rect x='419.87' y='461.67' width='19.54' height='7.79' style='stroke-width: 1.71; stroke: #FFFFFF; stroke-linecap: square; stroke-linejoin: miter; fill: #2166AC;' />
<rect x='419.87' y='453.88' width='19.54' height='7.79' style='stroke-width: 1.71; stroke: #FFFFFF; stroke-linecap: square; stroke-linejoin: miter; fill: #2166AC;' />
<rect x='419.87' y='446.10' width='19.54' height='7.79' style='stroke-width: 1.71; stroke: #FFFFFF; stroke-linecap: square; stroke-linejoin: miter; fill: #2166AC;' />
<rect x='419.87' y='438.31' width='19.54' height='7.79' style='stroke-width: 1.71; stroke: #FFFFFF; stroke-linecap: square; stroke-linejoin: miter; fill: #2166AC;' />
<rect x='419.87' y='430.53' width='19.54' height='7.79' style='stroke-width: 1.71; stroke: #FFFFFF; stroke-linecap: square; stroke-linejoin: miter; fill: #2166AC;' />
<rect x='419.87' y='422.74' width='19.54' height='7.79' style='stroke-width: 1.71; stroke: #FFFFFF; stroke-linecap: square; stroke-linejoin: miter; fill: #2166AC;' />
<rect x='419.87' y='414.95' width='19.54' height='7.79' style='stroke-width: 1.71; stroke: #FFFFFF; stroke-linecap: square; stroke-linejoin: miter; fill: #2166AC;' />
<rect x='419.87' y='407.17' width='19.54' height='7.79' style='stroke-width: 1.71; stroke: #FFFFFF; stroke-linecap: square; stroke-linejoin: miter; fill: #2166AC;' />
<rect x='419.87' y='399.38' width='19.54' height='7.79' style='stroke-width: 1.71; stroke: #FFFFFF; stroke-linecap: square; stroke-linejoin: miter; fill: #2166AC;' />
<rect x='419.87' y='391.60' width='19.54' height='7.79' style='stroke-width: 1.71; stroke: #FFFFFF; stroke-linecap: square; stroke-linejoin: miter; fill: #2166AC;' />
<rect x='419.87' y='383.81' width='19.54' height='7.79' style='stroke-width: 1.71; stroke: #FFFFFF; stroke-linecap: square; stroke-linejoin: miter; fill: #2166AC;' />
<rect x='419.87' y='376.03' width='19.54' height='7.79' style='stroke-width: 1.71; stroke: #FFFFFF; stroke-linecap: square; stroke-linejoin: miter; fill: #2166AC;' />
<rect x='419.87' y='368.24' width='19.54' height='7.79' style='stroke-width: 1.71; stroke: #FFFFFF; stroke-linecap: square; stroke-linejoin: miter; fill: #2166AC;' />
<rect x='419.87' y='360.45' width='19.54' height='7.79' style='stroke-width: 1.71; stroke: #FFFFFF; stroke-linecap: square; stroke-linejoin: miter; fill: #2166AC;' />
<rect x='419.87' y='352.67' width='19.54' height='7.79' style='stroke-width: 1.71; stroke: #FFFFFF; stroke-linecap: square; stroke-linejoin: miter; fill: #2166AC;' />
<rect x='419.87' y='344.88' width='19.54' height='7.79' style='stroke-width: 1.71; stroke: #FFFFFF; stroke-linecap: square; stroke-linejoin: miter; fill: #2166AC;' />
<rect x='419.87' y='337.10' width='19.54' height='7.79' style='stroke-width: 1.71; stroke: #FFFFFF; stroke-linecap: square; stroke-linejoin: miter; fill: #2166AC;' />
<rect x='419.87' y='329.31' width='19.54' height='7.79' style='stroke-width: 1.71; stroke: #FFFFFF; stroke-linecap: square; stroke-linejoin: miter; fill: #2166AC;' />
<rect x='419.87' y='321.52' width='19.54' height='7.79' style='stroke-width: 1.71; stroke: #FFFFFF; stroke-linecap: square; stroke-linejoin: miter; fill: #2166AC;' />
<rect x='419.87' y='313.74' width='19.54' height='7.79' style='stroke-width: 1.71; stroke: #FFFFFF; stroke-linecap: square; stroke-linejoin: miter; fill: #2166AC;' />
<rect x='419.87' y='305.95' width='19.54' height='7.79' style='stroke-width: 1.71; stroke: #FFFFFF; stroke-linecap: square; stroke-linejoin: miter; fill: #2166AC;' />
<rect x='419.87' y='298.17' width='19.54' height='7.79' style='stroke-width: 1.71; stroke: #FFFFFF; stroke-linecap: square; stroke-linejoin: miter; fill: #2166AC;' />
<rect x='419.87' y='290.38' width='19.54' height='7.79' style='stroke-width: 1.71; stroke: #FFFFFF; stroke-linecap: square; stroke-linejoin: miter; fill: #2166AC;' />
<rect x='419.87' y='282.60' width='19.54' height='7.79' style='stroke-width: 1.71; stroke: #FFFFFF; stroke-linecap: square; stroke-linejoin: miter; fill: #2166AC;' />
<rect x='419.87' y='274.81' width='19.54' height='7.79' style='stroke-width: 1.71; stroke: #FFFFFF; stroke-linecap: square; stroke-linejoin: miter; fill: #2166AC;' />
<rect x='419.87' y='267.02' width='19.54' height='7.79' style='stroke-width: 1.71; stroke: #FFFFFF; stroke-linecap: square; stroke-linejoin: miter; fill: #2166AC;' />
<rect x='419.87' y='259.24' width='19.54' height='7.79' style='stroke-width: 1.71; stroke: #FFFFFF; stroke-linecap: square; stroke-linejoin: miter; fill: #2166AC;' />
<rect x='419.87' y='251.45' width='19.54' height='7.79' style='stroke-width: 1.71; stroke: #FFFFFF; stroke-linecap: square; stroke-linejoin: miter; fill: #2166AC;' />
<rect x='419.87' y='243.67' width='19.54' height='7.79' style='stroke-width: 1.71; stroke: #FFFFFF; stroke-linecap: square; stroke-linejoin: miter; fill: #2166AC;' />
<rect x='419.87' y='235.88' width='19.54' height='7.79' style='stroke-width: 1.71; stroke: #FFFFFF; stroke-linecap: square; stroke-linejoin: miter; fill: #2166AC;' />
<rect x='419.87' y='228.10' width='19.54' height='7.79' style='stroke-width: 1.71; stroke: #FFFFFF; stroke-linecap: square; stroke-linejoin: miter; fill: #2166AC;' />
<rect x='419.87' y='220.31' width='19.54' height='7.79' style='stroke-width: 1.71; stroke: #FFFFFF; stroke-linecap: square; stroke-linejoin: miter; fill: #2166AC;' />
<rect x='419.87' y='212.52' width='19.54' height='7.79' style='stroke-width: 1.71; stroke: #FFFFFF; stroke-linecap: square; stroke-linejoin: miter; fill: #2166AC;' />
<rect x='419.87' y='204.74' width='19.54' height='7.79' style='stroke-width: 1.71; stroke: #FFFFFF; stroke-linecap: square; stroke-linejoin: miter; fill: #2166AC;' />
<rect x='419.87' y='196.95' width='19.54' height='7.79' style='stroke-width: 1.71; stroke: #FFFFFF; stroke-linecap: square; stroke-linejoin: miter; fill: #2166AC;' />
<rect x='419.87' y='189.17' width='19.54' height='7.79' style='stroke-width: 1.71; stroke: #FFFFFF; stroke-linecap: square; stroke-linejoin: miter; fill: #2166AC;' />
<rect x='419.87' y='181.38' width='19.54' height='7.79' style='stroke-width: 1.71; stroke: #FFFFFF; stroke-linecap: square; stroke-linejoin: miter; fill: #2166AC;' />
<rect x='419.87' y='173.60' width='19.54' height='7.79' style='stroke-width: 1.71; stroke: #FFFFFF; stroke-linecap: square; stroke-linejoin: miter; fill: #2166AC;' />
<rect x='419.87' y='165.81' width='19.54' height='7.79' style='stroke-width: 1.71; stroke: #FFFFFF; stroke-linecap: square; stroke-linejoin: miter; fill: #2166AC;' />
<rect x='419.87' y='158.02' width='19.54' height='7.79' style='stroke-width: 1.71; stroke: #FFFFFF; stroke-linecap: square; stroke-linejoin: miter; fill: #2166AC;' />
<rect x='419.87' y='150.24' width='19.54' height='7.79' style='stroke-width: 1.71; stroke: #FFFFFF; stroke-linecap: square; stroke-linejoin: miter; fill: #2166AC;' />
<rect x='419.87' y='142.45' width='19.54' height='7.79' style='stroke-width: 1.71; stroke: #FFFFFF; stroke-linecap: square; stroke-linejoin: miter; fill: #2166AC;' />
<rect x='419.87' y='134.67' width='19.54' height='7.79' style='stroke-width: 1.71; stroke: #FFFFFF; stroke-linecap: square; stroke-linejoin: miter; fill: #2166AC;' />
<rect x='419.87' y='126.88' width='19.54' height='7.79' style='stroke-width: 1.71; stroke: #FFFFFF; stroke-linecap: square; stroke-linejoin: miter; fill: #2166AC;' />
<rect x='419.87' y='119.10' width='19.54' height='7.79' style='stroke-width: 1.71; stroke: #FFFFFF; stroke-linecap: square; stroke-linejoin: miter; fill: #2166AC;' />
<rect x='419.87' y='111.31' width='19.54' height='7.79' style='stroke-width: 1.71; stroke: #FFFFFF; stroke-linecap: square; stroke-linejoin: miter; fill: #2166AC;' />
<rect x='419.87' y='103.52' width='19.54' height='7.79' style='stroke-width: 1.71; stroke: #FFFFFF; stroke-linecap: square; stroke-linejoin: miter; fill: #2166AC;' />
<rect x='419.87' y='95.74' width='19.54' height='7.79' style='stroke-width: 1.71; stroke: #FFFFFF; stroke-linecap: square; stroke-linejoin: miter; fill: #2166AC;' />
<rect x='419.87' y='87.95' width='19.54' height='7.79' style='stroke-width: 1.71; stroke: #FFFFFF; stroke-linecap: square; stroke-linejoin: miter; fill: #2166AC;' />
<rect x='419.87' y='80.17' width='19.54' height='7.79' style='stroke-width: 1.71; stroke: #FFFFFF; stroke-linecap: square; stroke-linejoin: miter; fill: #2166AC;' />
<rect x='419.87' y='72.38' width='19.54' height='7.79' style='stroke-width: 1.71; stroke: #FFFFFF; stroke-linecap: square; stroke-linejoin: miter; fill: #2166AC;' />
</g>
<g clip-path='url(#cpMC4wMHw3MjAuMDB8MC4wMHw1NzYuMDA=)'>
<text transform='translate(429.64,66.67) rotate(-90)' style='font-size: 8.80px; fill: #4D4D4D; font-family: sans;' textLength='31.29px' lengthAdjust='spacingAndGlyphs'>MATCH</text>
<text x='412.99' y='484.57' text-anchor='end' style='font-size: 10.00px; fill: #4D4D4D; font-family: sans;' textLength='52.25px' lengthAdjust='spacingAndGlyphs'>CENTER_0</text>
<text x='412.99' y='476.79' text-anchor='end' style='font-size: 10.00px; fill: #4D4D4D; font-family: sans;' textLength='57.81px' lengthAdjust='spacingAndGlyphs'>PSEUDO_ID</text>
<text x='412.99' y='469.00' text-anchor='end' style='font-size: 10.00px; fill: #4D4D4D; font-family: sans;' textLength='31.14px' lengthAdjust='spacingAndGlyphs'>SEX_0</text>
<text x='412.99' y='461.22' text-anchor='end' style='font-size: 10.00px; fill: #4D4D4D; font-family: sans;' textLength='32.25px' lengthAdjust='spacingAndGlyphs'>AGE_0</text>
<text x='412.99' y='453.43' text-anchor='end' style='font-size: 10.00px; fill: #4D4D4D; font-family: sans;' textLength='74.50px' lengthAdjust='spacingAndGlyphs'>AGE_GROUP_0</text>
<text x='412.99' y='445.64' text-anchor='end' style='font-size: 10.00px; fill: #4D4D4D; font-family: sans;' textLength='32.25px' lengthAdjust='spacingAndGlyphs'>AGE_1</text>
<text x='412.99' y='437.86' text-anchor='end' style='font-size: 10.00px; fill: #4D4D4D; font-family: sans;' textLength='31.14px' lengthAdjust='spacingAndGlyphs'>SEX_1</text>
<text x='412.99' y='430.07' text-anchor='end' style='font-size: 10.00px; fill: #4D4D4D; font-family: sans;' textLength='66.14px' lengthAdjust='spacingAndGlyphs'>PART_STUDY</text>
<text x='412.99' y='422.29' text-anchor='end' style='font-size: 10.00px; fill: #4D4D4D; font-family: sans;' textLength='31.14px' lengthAdjust='spacingAndGlyphs'>SBP_0</text>
<text x='412.99' y='414.50' text-anchor='end' style='font-size: 10.00px; fill: #4D4D4D; font-family: sans;' textLength='31.69px' lengthAdjust='spacingAndGlyphs'>DBP_0</text>
<text x='412.99' y='406.72' text-anchor='end' style='font-size: 10.00px; fill: #4D4D4D; font-family: sans;' textLength='121.76px' lengthAdjust='spacingAndGlyphs'>GLOBAL_HEALTH_VAS_0</text>
<text x='412.99' y='398.93' text-anchor='end' style='font-size: 10.00px; fill: #4D4D4D; font-family: sans;' textLength='52.81px' lengthAdjust='spacingAndGlyphs'>ASTHMA_0</text>
<text x='412.99' y='391.14' text-anchor='end' style='font-size: 10.00px; fill: #4D4D4D; font-family: sans;' textLength='77.27px' lengthAdjust='spacingAndGlyphs'>VO2_CAPCAT_0</text>
<text x='412.99' y='383.36' text-anchor='end' style='font-size: 10.00px; fill: #4D4D4D; font-family: sans;' textLength='63.37px' lengthAdjust='spacingAndGlyphs'>ARM_CIRC_0</text>
<text x='412.99' y='375.57' text-anchor='end' style='font-size: 10.00px; fill: #4D4D4D; font-family: sans;' textLength='92.83px' lengthAdjust='spacingAndGlyphs'>ARM_CIRC_DISC_0</text>
<text x='412.99' y='367.79' text-anchor='end' style='font-size: 10.00px; fill: #4D4D4D; font-family: sans;' textLength='65.58px' lengthAdjust='spacingAndGlyphs'>ARM_CUFF_0</text>
<text x='412.99' y='360.00' text-anchor='end' style='font-size: 10.00px; fill: #4D4D4D; font-family: sans;' textLength='57.82px' lengthAdjust='spacingAndGlyphs'>USR_VO2_0</text>
<text x='412.99' y='352.22' text-anchor='end' style='font-size: 10.00px; fill: #4D4D4D; font-family: sans;' textLength='51.15px' lengthAdjust='spacingAndGlyphs'>USR_BP_0</text>
<text x='412.99' y='344.43' text-anchor='end' style='font-size: 10.00px; fill: #4D4D4D; font-family: sans;' textLength='58.37px' lengthAdjust='spacingAndGlyphs'>EXAM_DT_0</text>
<text x='412.99' y='336.64' text-anchor='end' style='font-size: 10.00px; fill: #4D4D4D; font-family: sans;' textLength='93.39px' lengthAdjust='spacingAndGlyphs'>PART_PHYS_EXAM</text>
<text x='412.99' y='328.86' text-anchor='end' style='font-size: 10.00px; fill: #4D4D4D; font-family: sans;' textLength='32.24px' lengthAdjust='spacingAndGlyphs'>CRP_0</text>
<text x='412.99' y='321.07' text-anchor='end' style='font-size: 10.00px; fill: #4D4D4D; font-family: sans;' textLength='32.25px' lengthAdjust='spacingAndGlyphs'>BSG_0</text>
<text x='412.99' y='313.29' text-anchor='end' style='font-size: 10.00px; fill: #4D4D4D; font-family: sans;' textLength='52.26px' lengthAdjust='spacingAndGlyphs'>DEV_NO_0</text>
<text x='412.99' y='305.50' text-anchor='end' style='font-size: 10.00px; fill: #4D4D4D; font-family: sans;' textLength='48.92px' lengthAdjust='spacingAndGlyphs'>LAB_DT_0</text>
<text x='412.99' y='297.72' text-anchor='end' style='font-size: 10.00px; fill: #4D4D4D; font-family: sans;' textLength='51.14px' lengthAdjust='spacingAndGlyphs'>PART_LAB</text>
<text x='412.99' y='289.93' text-anchor='end' style='font-size: 10.00px; fill: #4D4D4D; font-family: sans;' textLength='70.03px' lengthAdjust='spacingAndGlyphs'>EDUCATION_0</text>
<text x='412.99' y='282.14' text-anchor='end' style='font-size: 10.00px; fill: #4D4D4D; font-family: sans;' textLength='70.03px' lengthAdjust='spacingAndGlyphs'>EDUCATION_1</text>
<text x='412.99' y='274.36' text-anchor='end' style='font-size: 10.00px; fill: #4D4D4D; font-family: sans;' textLength='63.36px' lengthAdjust='spacingAndGlyphs'>FAM_STAT_0</text>
<text x='412.99' y='266.57' text-anchor='end' style='font-size: 10.00px; fill: #4D4D4D; font-family: sans;' textLength='57.25px' lengthAdjust='spacingAndGlyphs'>MARRIED_0</text>
<text x='412.99' y='258.79' text-anchor='end' style='font-size: 10.00px; fill: #4D4D4D; font-family: sans;' textLength='53.92px' lengthAdjust='spacingAndGlyphs'>N_CHILD_0</text>
<text x='412.99' y='251.00' text-anchor='end' style='font-size: 10.00px; fill: #4D4D4D; font-family: sans;' textLength='87.27px' lengthAdjust='spacingAndGlyphs'>EATING_PREFS_0</text>
<text x='412.99' y='243.22' text-anchor='end' style='font-size: 10.00px; fill: #4D4D4D; font-family: sans;' textLength='73.37px' lengthAdjust='spacingAndGlyphs'>MEAT_CONS_0</text>
<text x='412.99' y='235.43' text-anchor='end' style='font-size: 10.00px; fill: #4D4D4D; font-family: sans;' textLength='58.37px' lengthAdjust='spacingAndGlyphs'>SMOKING_0</text>
<text x='412.99' y='227.64' text-anchor='end' style='font-size: 10.00px; fill: #4D4D4D; font-family: sans;' textLength='81.17px' lengthAdjust='spacingAndGlyphs'>SMOKE_SHOP_0</text>
<text x='412.99' y='219.86' text-anchor='end' style='font-size: 10.00px; fill: #4D4D4D; font-family: sans;' textLength='69.49px' lengthAdjust='spacingAndGlyphs'>N_INJURIES_0</text>
<text x='412.99' y='212.07' text-anchor='end' style='font-size: 10.00px; fill: #4D4D4D; font-family: sans;' textLength='53.92px' lengthAdjust='spacingAndGlyphs'>N_BIRTH_0</text>
<text x='412.99' y='204.29' text-anchor='end' style='font-size: 10.00px; fill: #4D4D4D; font-family: sans;' textLength='93.38px' lengthAdjust='spacingAndGlyphs'>INCOME_GROUP_0</text>
<text x='412.99' y='196.50' text-anchor='end' style='font-size: 10.00px; fill: #4D4D4D; font-family: sans;' textLength='66.70px' lengthAdjust='spacingAndGlyphs'>PREGNANT_0</text>
<text x='412.99' y='188.72' text-anchor='end' style='font-size: 10.00px; fill: #4D4D4D; font-family: sans;' textLength='73.92px' lengthAdjust='spacingAndGlyphs'>MEDICATION_0</text>
<text x='412.99' y='180.93' text-anchor='end' style='font-size: 10.00px; fill: #4D4D4D; font-family: sans;' textLength='85.05px' lengthAdjust='spacingAndGlyphs'>N_ATC_CODES_0</text>
<text x='412.99' y='173.14' text-anchor='end' style='font-size: 10.00px; fill: #4D4D4D; font-family: sans;' textLength='81.71px' lengthAdjust='spacingAndGlyphs'>USR_SOCDEM_0</text>
<text x='412.99' y='165.36' text-anchor='end' style='font-size: 10.00px; fill: #4D4D4D; font-family: sans;' textLength='46.13px' lengthAdjust='spacingAndGlyphs'>INT_DT_0</text>
<text x='412.99' y='157.57' text-anchor='end' style='font-size: 10.00px; fill: #4D4D4D; font-family: sans;' textLength='87.80px' lengthAdjust='spacingAndGlyphs'>PART_INTERVIEW</text>
<text x='412.99' y='149.79' text-anchor='end' style='font-size: 10.00px; fill: #4D4D4D; font-family: sans;' textLength='46.14px' lengthAdjust='spacingAndGlyphs'>ITEM_1_0</text>
<text x='412.99' y='142.00' text-anchor='end' style='font-size: 10.00px; fill: #4D4D4D; font-family: sans;' textLength='46.14px' lengthAdjust='spacingAndGlyphs'>ITEM_2_0</text>
<text x='412.99' y='134.22' text-anchor='end' style='font-size: 10.00px; fill: #4D4D4D; font-family: sans;' textLength='46.14px' lengthAdjust='spacingAndGlyphs'>ITEM_3_0</text>
<text x='412.99' y='126.43' text-anchor='end' style='font-size: 10.00px; fill: #4D4D4D; font-family: sans;' textLength='46.14px' lengthAdjust='spacingAndGlyphs'>ITEM_4_0</text>
<text x='412.99' y='118.64' text-anchor='end' style='font-size: 10.00px; fill: #4D4D4D; font-family: sans;' textLength='46.14px' lengthAdjust='spacingAndGlyphs'>ITEM_5_0</text>
<text x='412.99' y='110.86' text-anchor='end' style='font-size: 10.00px; fill: #4D4D4D; font-family: sans;' textLength='46.14px' lengthAdjust='spacingAndGlyphs'>ITEM_6_0</text>
<text x='412.99' y='103.07' text-anchor='end' style='font-size: 10.00px; fill: #4D4D4D; font-family: sans;' textLength='46.14px' lengthAdjust='spacingAndGlyphs'>ITEM_7_0</text>
<text x='412.99' y='95.29' text-anchor='end' style='font-size: 10.00px; fill: #4D4D4D; font-family: sans;' textLength='46.14px' lengthAdjust='spacingAndGlyphs'>ITEM_8_0</text>
<text x='412.99' y='87.50' text-anchor='end' style='font-size: 10.00px; fill: #4D4D4D; font-family: sans;' textLength='64.48px' lengthAdjust='spacingAndGlyphs'>QUEST_DT_0</text>
<text x='412.99' y='79.72' text-anchor='end' style='font-size: 10.00px; fill: #4D4D4D; font-family: sans;' textLength='115.05px' lengthAdjust='spacingAndGlyphs'>PART_QUESTIONNAIRE</text>
<text transform='translate(286.21,278.70) rotate(-90)' text-anchor='middle' style='font-size: 11.00px; font-family: sans;' textLength='61.16px' lengthAdjust='spacingAndGlyphs'>VARIABLES</text>
<text x='344.77' y='537.43' style='font-size: 11.00px; font-family: sans;' textLength='3.06px' lengthAdjust='spacingAndGlyphs'> </text>
<rect x='354.44' y='503.38' width='15.01' height='15.01' style='stroke-width: 1.71; stroke: #FFFFFF; stroke-linecap: square; stroke-linejoin: miter; fill: #B2182B;' />
<rect x='354.44' y='526.14' width='15.01' height='15.01' style='stroke-width: 1.71; stroke: #FFFFFF; stroke-linecap: square; stroke-linejoin: miter; fill: #2166AC;' />
<rect x='354.44' y='548.89' width='15.01' height='15.01' style='stroke-width: 1.71; stroke: #FFFFFF; stroke-linecap: square; stroke-linejoin: miter; fill: #92C5DE;' />
<text x='376.06' y='513.91' style='font-size: 8.80px; font-family: sans;' textLength='91.00px' lengthAdjust='spacingAndGlyphs'>Non-matching datatype</text>
<text x='376.06' y='536.67' style='font-size: 8.80px; font-family: sans;' textLength='138.45px' lengthAdjust='spacingAndGlyphs'>Non-Matching datatype, convertible</text>
<text x='376.06' y='559.43' style='font-size: 8.80px; font-family: sans;' textLength='71.92px' lengthAdjust='spacingAndGlyphs'>Matching datatype</text>
<text x='417.92' y='14.56' style='font-size: 13.20px; font-family: sans;' textLength='100.54px' lengthAdjust='spacingAndGlyphs'>integrity datatype</text>
</g>
</svg>
