<?xml version='1.0' encoding='UTF-8' ?>
<svg xmlns='http://www.w3.org/2000/svg' xmlns:xlink='http://www.w3.org/1999/xlink' class='svglite' data-engine-version='2.0' width='720.00pt' height='576.00pt' viewBox='0 0 720.00 576.00'>
<defs>
  <style type='text/css'><![CDATA[
    .svglite line, .svglite polyline, .svglite polygon, .svglite path, .svglite rect, .svglite circle {
      fill: none;
      stroke: #000000;
      stroke-linecap: round;
      stroke-linejoin: round;
      stroke-miterlimit: 10.00;
    }
  ]]></style>
</defs>
<rect width='100%' height='100%' style='stroke: none; fill: #FFFFFF;'/>
<defs>
  <clipPath id='cpMC4wMHw3MjAuMDB8MC4wMHw1NzYuMDA='>
    <rect x='0.00' y='0.00' width='720.00' height='576.00' />
  </clipPath>
</defs>
<g clip-path='url(#cpMC4wMHw3MjAuMDB8MC4wMHw1NzYuMDA=)'>
</g>
<defs>
  <clipPath id='cpNzguODl8NjE5Ljc1fDIyLjc4fDUzOS45NQ=='>
    <rect x='78.89' y='22.78' width='540.87' height='517.16' />
  </clipPath>
</defs>
<g clip-path='url(#cpNzguODl8NjE5Ljc1fDIyLjc4fDUzOS45NQ==)'>
<polyline points='78.89,281.37 619.75,281.37 ' style='stroke-width: 1.07; stroke: #EBEBEB; stroke-linecap: butt;' />
<polyline points='349.32,539.95 349.32,22.78 ' style='stroke-width: 1.07; stroke: #EBEBEB; stroke-linecap: butt;' />
<circle cx='349.32' cy='281.37' r='8.21' style='stroke-width: 0.71; fill: #FC8D59;' />
</g>
<g clip-path='url(#cpMC4wMHw3MjAuMDB8MC4wMHw1NzYuMDA=)'>
<text x='73.96' y='284.39' text-anchor='end' style='font-size: 8.80px; fill: #4D4D4D; font-family: sans;' textLength='68.48px' lengthAdjust='spacingAndGlyphs'>ADDED: SysMiss</text>
<polyline points='76.15,281.37 78.89,281.37 ' style='stroke-width: 1.07; stroke-linecap: butt;' />
<polyline points='349.32,542.69 349.32,539.95 ' style='stroke-width: 1.07; stroke-linecap: butt;' />
<text transform='translate(353.60,549.16) rotate(-45)' text-anchor='end' style='font-size: 8.80px; fill: #4D4D4D; font-family: sans;' textLength='28.38px' lengthAdjust='spacingAndGlyphs'>AGE_0</text>
<image width='17.28' height='86.40' x='636.19' y='216.77' preserveAspectRatio='none' xlink:href='data:image/png;base64,iVBORw0KGgoAAAANSUhEUgAAAAEAAAEsCAYAAAACUNnVAAAAHUlEQVQ4jWP40xv5n4mBgYFhlBglRolRYpQYLgQAtmgFOGNOR/sAAAAASUVORK5CYII='/>
<text x='658.95' y='263.00' style='font-size: 8.80px; font-family: sans;' textLength='46.50px' lengthAdjust='spacingAndGlyphs'>0.02040816</text>
<text x='636.19' y='210.15' style='font-size: 11.00px; font-family: sans;' textLength='26.30px' lengthAdjust='spacingAndGlyphs'>value</text>
<line x1='636.19' y1='259.97' x2='639.65' y2='259.97' style='stroke-width: 0.38; stroke: #FFFFFF; stroke-linecap: butt;' />
<line x1='650.02' y1='259.97' x2='653.47' y2='259.97' style='stroke-width: 0.38; stroke: #FFFFFF; stroke-linecap: butt;' />
<text x='636.19' y='333.80' style='font-size: 11.00px; font-family: sans;' textLength='26.30px' lengthAdjust='spacingAndGlyphs'>value</text>
<circle cx='646.63' cy='350.86' r='8.21' style='stroke-width: 0.71;' />
<text x='662.55' y='353.89' style='font-size: 8.80px; font-family: sans;' textLength='46.50px' lengthAdjust='spacingAndGlyphs'>0.02040816</text>
<text x='78.89' y='14.56' style='font-size: 13.20px; font-family: sans;' textLength='106.39px' lengthAdjust='spacingAndGlyphs'>im-ex2-repsumtab</text>
</g>
</svg>
